ui-deployment-configs        digital    cbx-web                             igtb-digital-spa/release_2.5.0/igtb-spa-bbl-2.5.0-rc.34.zip
nodejs-deployment-config     digital    digital-quest                       digital-quest/bbl/bbl-digital-quest@0.17.0-rc.166/bbl-digital-quest@0.17.0-rc.166.tar.gz
cloud-deployment-config      digital    properties                          igtbdigital/config-bbl-support.git


