DIGITAL     digital-filestore              0.1.47
DIGITAL     ingestion-account-services     0.0.37
DIGITAL     action-groups                  1.1.0
DIGITAL     idp-stub-service               0.0.26
DIGITAL     digital-workflowinitiator      1.1.5
DIGITAL     digital-mfa-facade             1.1.1
DIGITAL     digital-bulk-processing        1.0.37
DIGITAL     digital-conductor              0.0.42
DIGITAL     digital-chronos                1.1.0
DIGITAL     ingestion-filestore            1.0.15
